%YAML 1.1
%TAG !u! tag:unity3d.com,2011:
--- !u!1 &4791792225324796441
GameObject:
  m_ObjectHideFlags: 0
  m_CorrespondingSourceObject: {fileID: 0}
  m_PrefabInstance: {fileID: 0}
  m_PrefabAsset: {fileID: 0}
  serializedVersion: 6
  m_Component:
  - component: {fileID: 4791792225324796446}
  - component: {fileID: 4791792225324796445}
  - component: {fileID: 4791792225324796444}
  - component: {fileID: 4791792225324796443}
  - component: {fileID: 4791792225324796442}
  m_Layer: 0
  m_Name: Obstacle
  m_TagString: Untagged
  m_Icon: {fileID: 0}
  m_NavMeshLayer: 0
  m_StaticEditorFlags: 0
  m_IsActive: 1
--- !u!4 &4791792225324796446
Transform:
  m_ObjectHideFlags: 0
  m_CorrespondingSourceObject: {fileID: 0}
  m_PrefabInstance: {fileID: 0}
  m_PrefabAsset: {fileID: 0}
  m_GameObject: {fileID: 4791792225324796441}
  m_LocalRotation: {x: -0, y: 0.70710707, z: -0, w: 0.7071066}
  m_LocalPosition: {x: -3.9999957, y: 0, z: 15.000004}
  m_LocalScale: {x: 1, y: 1, z: 1}
  m_Children: []
  m_Father: {fileID: 0}
  m_RootOrder: 0
  m_LocalEulerAnglesHint: {x: 0, y: 90, z: 0}
--- !u!114 &4791792225324796445
MonoBehaviour:
  m_ObjectHideFlags: 0
  m_CorrespondingSourceObject: {fileID: 0}
  m_PrefabInstance: {fileID: 0}
  m_PrefabAsset: {fileID: 0}
  m_GameObject: {fileID: 4791792225324796441}
  m_Enabled: 1
  m_EditorHideFlags: 0
  m_Script: {fileID: 11500000, guid: 8233d90336aea43098adf6dbabd606a2, type: 3}
  m_Name: 
  m_EditorClassIdentifier: 
  m_MeshFormatVersion: 1
  m_Faces:
  - m_Indexes: 000000000100000002000000010000000300000002000000
    m_SmoothingGroup: 0
    m_Uv:
      m_UseWorldSpace: 0
      m_FlipU: 0
      m_FlipV: 0
      m_SwapUV: 0
      m_Fill: 1
      m_Scale: {x: 1, y: 1}
      m_Offset: {x: 0, y: 0}
      m_Rotation: 0
      m_Anchor: 9
    m_Material: {fileID: 0}
    m_SubmeshIndex: 0
    m_ManualUV: 0
    elementGroup: -1
    m_TextureGroup: -1
  - m_Indexes: 040000000500000006000000050000000700000006000000
    m_SmoothingGroup: 0
    m_Uv:
      m_UseWorldSpace: 0
      m_FlipU: 0
      m_FlipV: 0
      m_SwapUV: 0
      m_Fill: 1
      m_Scale: {x: 1, y: 1}
      m_Offset: {x: 0, y: 0}
      m_Rotation: 0
      m_Anchor: 9
    m_Material: {fileID: 0}
    m_SubmeshIndex: 0
    m_ManualUV: 0
    elementGroup: -1
    m_TextureGroup: -1
  - m_Indexes: 08000000090000000a000000090000000b0000000a000000
    m_SmoothingGroup: 0
    m_Uv:
      m_UseWorldSpace: 0
      m_FlipU: 0
      m_FlipV: 0
      m_SwapUV: 0
      m_Fill: 1
      m_Scale: {x: 1, y: 1}
      m_Offset: {x: 0, y: 0}
      m_Rotation: 0
      m_Anchor: 9
    m_Material: {fileID: 0}
    m_SubmeshIndex: 0
    m_ManualUV: 0
    elementGroup: -1
    m_TextureGroup: -1
  - m_Indexes: 0c0000000d0000000e0000000d0000000f0000000e000000
    m_SmoothingGroup: 0
    m_Uv:
      m_UseWorldSpace: 0
      m_FlipU: 0
      m_FlipV: 0
      m_SwapUV: 0
      m_Fill: 1
      m_Scale: {x: 1, y: 1}
      m_Offset: {x: 0, y: 0}
      m_Rotation: 0
      m_Anchor: 9
    m_Material: {fileID: 0}
    m_SubmeshIndex: 0
    m_ManualUV: 0
    elementGroup: -1
    m_TextureGroup: -1
  - m_Indexes: 100000001100000012000000110000001300000012000000
    m_SmoothingGroup: 0
    m_Uv:
      m_UseWorldSpace: 0
      m_FlipU: 0
      m_FlipV: 0
      m_SwapUV: 0
      m_Fill: 1
      m_Scale: {x: 1, y: 1}
      m_Offset: {x: 0, y: 0}
      m_Rotation: 0
      m_Anchor: 9
    m_Material: {fileID: 0}
    m_SubmeshIndex: 0
    m_ManualUV: 0
    elementGroup: -1
    m_TextureGroup: -1
  - m_Indexes: 140000001500000016000000150000001700000016000000
    m_SmoothingGroup: 0
    m_Uv:
      m_UseWorldSpace: 0
      m_FlipU: 0
      m_FlipV: 0
      m_SwapUV: 0
      m_Fill: 1
      m_Scale: {x: 1, y: 1}
      m_Offset: {x: 0, y: 0}
      m_Rotation: 0
      m_Anchor: 9
    m_Material: {fileID: 0}
    m_SubmeshIndex: 0
    m_ManualUV: 0
    elementGroup: -1
    m_TextureGroup: -1
  m_SharedVertices:
  - m_Vertices: 000000000d00000016000000
  - m_Vertices: 010000000400000017000000
  - m_Vertices: 020000000f00000010000000
  - m_Vertices: 030000000600000011000000
  - m_Vertices: 050000000800000015000000
  - m_Vertices: 070000000a00000013000000
  - m_Vertices: 090000000c00000014000000
  - m_Vertices: 0b0000000e00000012000000
  m_SharedTextures: []
  m_Positions:
  - {x: -1.0000001, y: 0, z: 8.000004}
  - {x: 1.0000011, y: 0, z: 8.000004}
  - {x: -1.0000001, y: 2, z: 8.000004}
  - {x: 1.0000011, y: 2, z: 8.000004}
  - {x: 1.0000011, y: 0, z: 8.000004}
  - {x: 1, y: 0, z: 0}
  - {x: 1.0000011, y: 2, z: 8.000004}
  - {x: 1, y: 2, z: 0}
  - {x: 1, y: 0, z: 0}
  - {x: -1, y: 0, z: 0}
  - {x: 1, y: 2, z: 0}
  - {x: -1, y: 2, z: 0}
  - {x: -1, y: 0, z: 0}
  - {x: -1.0000001, y: 0, z: 8.000004}
  - {x: -1, y: 2, z: 0}
  - {x: -1.0000001, y: 2, z: 8.000004}
  - {x: -1.0000001, y: 2, z: 8.000004}
  - {x: 1.0000011, y: 2, z: 8.000004}
  - {x: -1, y: 2, z: 0}
  - {x: 1, y: 2, z: 0}
  - {x: -1, y: 0, z: 0}
  - {x: 1, y: 0, z: 0}
  - {x: -1.0000001, y: 0, z: 8.000004}
  - {x: 1.0000011, y: 0, z: 8.000004}
  m_Textures0:
  - {x: 1.0000001, y: 0}
  - {x: -1.0000011, y: 0}
  - {x: 1.0000001, y: 2}
  - {x: -1.0000011, y: 2}
  - {x: 8.000004, y: 0}
  - {x: 0.0000001341104, y: 0}
  - {x: 8.000004, y: 2}
  - {x: 0.0000001341104, y: 2}
  - {x: 1, y: 0}
  - {x: -1, y: 0}
  - {x: 1, y: 2}
  - {x: -1, y: 2}
  - {x: -0.000000014901154, y: 0}
  - {x: -8.000004, y: 0}
  - {x: -0.000000014901154, y: 2}
  - {x: -8.000004, y: 2}
  - {x: -1.0000001, y: 8.000004}
  - {x: 1.0000011, y: 8.000004}
  - {x: -1, y: 0}
  - {x: 1, y: 0}
  - {x: 1, y: 0}
  - {x: -1, y: 0}
  - {x: 1.0000001, y: 8.000004}
  - {x: -1.0000011, y: 8.000004}
  m_Textures2: []
  m_Textures3: []
  m_Tangents:
  - {x: -1, y: 0, z: 0, w: -1}
  - {x: -1, y: 0, z: 0, w: -1}
  - {x: -1, y: 0, z: 0, w: -1}
  - {x: -1, y: 0, z: 0, w: -1}
  - {x: 0.0000001341104, y: 0, z: 1, w: -1}
  - {x: 0.0000001341104, y: 0, z: 1, w: -1}
  - {x: 0.0000001341104, y: 0, z: 1, w: -1}
  - {x: 0.0000001341104, y: 0, z: 1, w: -1}
  - {x: 1, y: 0, z: 0, w: -1}
  - {x: 1, y: 0, z: 0, w: -1}
  - {x: 1, y: 0, z: 0, w: -1}
  - {x: 1, y: 0, z: 0, w: -1}
  - {x: 0.000000014901154, y: 0, z: -1, w: -1}
  - {x: 0.000000014901154, y: 0, z: -1, w: -1}
  - {x: 0.000000014901154, y: 0, z: -1, w: -1}
  - {x: 0.000000014901154, y: 0, z: -1, w: -1}
  - {x: 1, y: 0, z: 0, w: -1}
  - {x: 1, y: 0, z: 0, w: -1}
  - {x: 1, y: 0, z: 0, w: -1}
  - {x: 1, y: 0, z: 0, w: -1}
  - {x: -1, y: 0, z: 0, w: -1}
  - {x: -1, y: 0, z: 0, w: -1}
  - {x: -1, y: 0, z: 0, w: -1}
  - {x: -1, y: 0, z: 0, w: -1}
  m_Colors:
  - {r: 0.41509432, g: 0.16721112, b: 0, a: 1}
  - {r: 0.41509432, g: 0.16721112, b: 0, a: 1}
  - {r: 0.41509432, g: 0.16721112, b: 0, a: 1}
  - {r: 0.41509432, g: 0.16721112, b: 0, a: 1}
  - {r: 0.41509432, g: 0.16721112, b: 0, a: 1}
  - {r: 0.41509432, g: 0.16721112, b: 0, a: 1}
  - {r: 0.41509432, g: 0.16721112, b: 0, a: 1}
  - {r: 0.41509432, g: 0.16721112, b: 0, a: 1}
  - {r: 0.41509432, g: 0.16721112, b: 0, a: 1}
  - {r: 0.41509432, g: 0.16721112, b: 0, a: 1}
  - {r: 0.41509432, g: 0.16721112, b: 0, a: 1}
  - {r: 0.41509432, g: 0.16721112, b: 0, a: 1}
  - {r: 0.41509432, g: 0.16721112, b: 0, a: 1}
  - {r: 0.41509432, g: 0.16721112, b: 0, a: 1}
  - {r: 0.41509432, g: 0.16721112, b: 0, a: 1}
  - {r: 0.41509432, g: 0.16721112, b: 0, a: 1}
  - {r: 0.41509432, g: 0.16721112, b: 0, a: 1}
  - {r: 0.41509432, g: 0.16721112, b: 0, a: 1}
  - {r: 0.41509432, g: 0.16721112, b: 0, a: 1}
  - {r: 0.41509432, g: 0.16721112, b: 0, a: 1}
  - {r: 0.41509432, g: 0.16721112, b: 0, a: 1}
  - {r: 0.41509432, g: 0.16721112, b: 0, a: 1}
  - {r: 0.41509432, g: 0.16721112, b: 0, a: 1}
  - {r: 0.41509432, g: 0.16721112, b: 0, a: 1}
  m_UnwrapParameters:
    m_HardAngle: 88
    m_PackMargin: 20
    m_AngleError: 8
    m_AreaError: 15
  m_PreserveMeshAssetOnDestroy: 0
  assetGuid: 
  m_Mesh: {fileID: 0}
  m_IsSelectable: 1
  m_SelectedFaces: 
  m_SelectedEdges: []
  m_SelectedVertices: 
--- !u!23 &4791792225324796444
MeshRenderer:
  m_ObjectHideFlags: 0
  m_CorrespondingSourceObject: {fileID: 0}
  m_PrefabInstance: {fileID: 0}
  m_PrefabAsset: {fileID: 0}
  m_GameObject: {fileID: 4791792225324796441}
  m_Enabled: 1
  m_CastShadows: 1
  m_ReceiveShadows: 1
  m_DynamicOccludee: 1
  m_MotionVectors: 1
  m_LightProbeUsage: 1
  m_ReflectionProbeUsage: 1
  m_RayTracingMode: 2
  m_RayTraceProcedural: 0
  m_RenderingLayerMask: 1
  m_RendererPriority: 0
  m_Materials:
  - {fileID: 2100000, guid: 5f1d81dab4f6d4ecd8ecce24e08558b4, type: 2}
  m_StaticBatchInfo:
    firstSubMesh: 0
    subMeshCount: 0
  m_StaticBatchRoot: {fileID: 0}
  m_ProbeAnchor: {fileID: 0}
  m_LightProbeVolumeOverride: {fileID: 0}
  m_ScaleInLightmap: 1
  m_ReceiveGI: 1
  m_PreserveUVs: 0
  m_IgnoreNormalsForChartDetection: 0
  m_ImportantGI: 0
  m_StitchLightmapSeams: 1
  m_SelectedEditorRenderState: 2
  m_MinimumChartSize: 4
  m_AutoUVMaxDistance: 0.5
  m_AutoUVMaxAngle: 89
  m_LightmapParameters: {fileID: 0}
  m_SortingLayerID: 0
  m_SortingLayer: 0
  m_SortingOrder: 0
  m_AdditionalVertexStreams: {fileID: 0}
--- !u!33 &4791792225324796443
MeshFilter:
  m_ObjectHideFlags: 0
  m_CorrespondingSourceObject: {fileID: 0}
  m_PrefabInstance: {fileID: 0}
  m_PrefabAsset: {fileID: 0}
  m_GameObject: {fileID: 4791792225324796441}
  m_Mesh: {fileID: 0}
--- !u!64 &4791792225324796442
MeshCollider:
  m_ObjectHideFlags: 0
  m_CorrespondingSourceObject: {fileID: 0}
  m_PrefabInstance: {fileID: 0}
  m_PrefabAsset: {fileID: 0}
  m_GameObject: {fileID: 4791792225324796441}
  m_Material: {fileID: 13400000, guid: 2a59f9c548b0c436ba1c457dd1b79309, type: 2}
  m_IsTrigger: 0
  m_Enabled: 1
  serializedVersion: 4
  m_Convex: 1
  m_CookingOptions: 30
  m_Mesh: {fileID: 0}
